This is BibTeX, Version 0.99d (TeX Live 2014/Arch Linux)
Capacity: max_strings=35307, hash_size=35307, hash_prime=30011
The top-level auxiliary file: 01_presentation.aux
The style file: apa.bst
Database file #1: biblio.bib
Too many commas in name 1 of "Krajewski, L.; Malholtra, M; Ritzman, L." for entry kraj
while executing---line 1048 of file apa.bst
Too many commas in name 1 of "Krajewski, L.; Malholtra, M; Ritzman, L." for entry kraj
while executing---line 1048 of file apa.bst
Too many commas in name 1 of "Krajewski, L.; Malholtra, M; Ritzman, L." for entry kraj
while executing---line 1123 of file apa.bst
You've used 3 entries,
            1940 wiz_defined-function locations,
            491 strings with 4147 characters,
and the built_in function-call counts, 838 in all, are:
= -- 80
> -- 21
< -- 3
+ -- 6
- -- 6
* -- 57
:= -- 162
add.period$ -- 10
call.type$ -- 3
change.case$ -- 16
chr.to.int$ -- 3
cite$ -- 3
duplicate$ -- 38
empty$ -- 62
format.name$ -- 9
if$ -- 158
int.to.chr$ -- 1
int.to.str$ -- 0
missing$ -- 4
newline$ -- 19
num.names$ -- 9
pop$ -- 16
preamble$ -- 1
purify$ -- 18
quote$ -- 0
skip$ -- 30
stack$ -- 0
substring$ -- 36
swap$ -- 5
text.length$ -- 0
text.prefix$ -- 0
top$ -- 0
type$ -- 14
warning$ -- 0
while$ -- 6
width$ -- 0
write$ -- 42
(There were 3 error messages)
